<?xml version="1.0" encoding="utf-8"?>
<!-- Generator: Adobe Illustrator 23.0.1, SVG Export Plug-In . SVG Version: 6.00 Build 0)  -->
<svg version="1.1" id="Capa_1" xmlns="http://www.w3.org/2000/svg" xmlns:xlink="http://www.w3.org/1999/xlink" x="0px" y="0px"
	 viewBox="0 0 512 512" style="enable-background:new 0 0 512 512;" xml:space="preserve">
<style type="text/css">
	.st0{fill:#005A96;}
	.st1{fill:#004071;}
	.st2{fill:#FF9FAF;}
	.st3{fill:#00244C;}
	.st4{fill:#FF6378;}
	.st5{fill:#FF1F3D;}
</style>
<g>
	<path class="st0" d="M453.3,352.2v46.2c-9.8-2.8-20.2-2.8-30,0v-46.2c0-35.9-47.4-48.6-65.3-17.5l-83.5,144.5
		c-33.2,57.4-121.3,34.1-121.3-32.5c0-39.3,0-101,0-101.8c9.9,1,20,1,30,0c0,0.8,0,62.7,0,101.8c0,35.9,47.4,48.6,65.3,17.5
		l83.5-144.5C365.3,262.2,453.3,285.7,453.3,352.2L453.3,352.2z"/>
	<path class="st1" d="M453.3,352.2v46.2c-9.8-2.8-20.2-2.8-30,0v-46.2c0-35.9-47.4-48.6-65.3-17.5l-83.5,144.5
		c-24.6,42.7-79.6,40.7-106.2,9.6V345.7c5,0,10-0.3,14.9-0.8c0,0.1,0,1.9,0,5c0,15.6,0,64.1,0,96.7c0,35.9,47.4,48.6,65.3,17.5
		l83.5-144.5C365.3,262.2,453.3,285.7,453.3,352.2L453.3,352.2z"/>
	<g>
		<path class="st2" d="M303.3,161.7c-1.6-0.4-3.3-0.6-5-0.6c-19.2,0.2-20.8-0.4-25,0.6c0-0.3,0,5.9,0-87.6
			c0-16.5-13.4-29.9-29.9-29.9h-6.1c-0.3-3.7-2.4-5.4-6.2-11.8c-3.7-5.9,6.9-9.9,6.2-18.2h6.2c33,0,60,26.9,60,59.9
			C303.3,167.4,303.3,161.3,303.3,161.7L303.3,161.7z"/>
		<path class="st2" d="M97.4,44.1h-4c-16.5,0-30,13.4-30,29.9c0,93.3,0,87.3,0,87.6c-4.2-1.1-5.9-0.4-25-0.6c-1.7,0-3.4,0.2-5,0.6
			c0-0.3,0,5.9,0-87.6c0-33,26.9-59.9,60-59.9h4c-0.5,5.8,3.7,8.5,6.3,12.5C108,32.1,98,37.2,97.4,44.1z"/>
	</g>
	<path class="st1" d="M119.2,5.8c-5.1-6.5-14.5-7.7-21.1-2.6c-6.5,5.1-7.7,14.5-2.6,21.1l4.2,5.5L95,36.6
		c-6.9,10,0.4,23.5,12.3,23.5c4.8,0,9.5-2.3,12.4-6.5l11-16c3.7-5.4,3.5-12.6-0.5-17.7L119.2,5.8z"/>
	<path class="st3" d="M235.3,29.6l4.2-6c4.8-6.8,3.2-16.1-3.6-20.9C229.1-2,219.8-0.4,215,6.3l-10,14.1c-3.5,4.9-3.7,11.5-0.5,16.6
		l10,16c2.8,4.5,7.7,7,12.7,7c11.6,0,19-12.9,12.7-23L235.3,29.6z"/>
	<ellipse class="st1" cx="438.3" cy="451.7" rx="60.3" ry="60.3"/>
	<ellipse class="st2" cx="438.3" cy="451.7" rx="30.3" ry="30.3"/>
	<path class="st4" d="M168.3,350.7c-41.2,0-80.1-16.1-109.4-45.3c-29.4-29.3-45.6-68.3-45.6-109.7V181c0-13.8,11.2-25,25-25h20
		c13.8,0,25,11.2,25,25v13.5c0,47,37.7,85.6,84.1,86.1l0.8,0c22.5,0,43.7-8.7,59.7-24.6c16.3-16.1,25.2-37.5,25.2-60.3V181
		c0-13.8,11.2-25,25-25h20c13.8,0,25,11.2,25,25v13.2c0,86-69.3,156.2-154.5,156.4H168.3z"/>
	<path class="st5" d="M323.3,181v13.2c0,81.1-61.6,148.1-140,155.7c-4.8,0.5-9.6,0.7-14.5,0.7h-0.4v-70c22.5,0,43.7-8.7,59.8-24.6
		c16.3-16.1,25.2-37.5,25.2-60.3V181c0-13.8,11.2-25,25-25h20C312.1,156,323.3,167.3,323.3,181L323.3,181z"/>
</g>
</svg>
